Parity/Parity Checker/parcheck.vcd
$date
  Thu Apr 18 22:04:24 2024
$end
$version
  GHDL v0
$end
$timescale
  1 fs
$end
$var reg 1 ! ep $end
$var reg 1 " op $end
$var reg 4 # s[3:0] $end
$scope module parity_checker $end
$var reg 4 $ s[3:0] $end
$var reg 1 % ep $end
$var reg 1 & op $end
$upscope $end
$enddefinitions $end
#0
1!
0"
b0000 #
b0000 $
1%
0&
#1000000
0!
1"
b0001 #
b0001 $
0%
1&
#2000000
b0010 #
b0010 $
#3000000
1!
0"
b0011 #
b0011 $
1%
0&
#4000000
0!
1"
b0100 #
b0100 $
0%
1&
#5000000
1!
0"
b0101 #
b0101 $
1%
0&
#6000000
b0110 #
b0110 $
#7000000
0!
1"
b0111 #
b0111 $
0%
1&
#8000000
b1000 #
b1000 $
#9000000
1!
0"
b1001 #
b1001 $
1%
0&
#10000000
b1010 #
b1010 $
#11000000
0!
1"
b1011 #
b1011 $
0%
1&
#12000000
1!
0"
b1100 #
b1100 $
1%
0&
#13000000
0!
1"
b1101 #
b1101 $
0%
1&
#14000000
b1110 #
b1110 $
#15000000
1!
0"
b1111 #
b1111 $
1%
0&
