Parity/Parity Generator/pargen.vcd
$date
  Thu Apr 18 22:25:21 2024
$end
$version
  GHDL v0
$end
$timescale
  1 fs
$end
$var reg 3 ! s[2:0] $end
$var reg 1 " ep $end
$var reg 1 # op $end
$scope module parity_generator $end
$var reg 3 $ s[2:0] $end
$var reg 1 % ep $end
$var reg 1 & op $end
$upscope $end
$enddefinitions $end
#0
b000 !
0"
1#
b000 $
0%
1&
#1000000
b001 !
1"
0#
b001 $
1%
0&
#2000000
b010 !
b010 $
#3000000
b011 !
0"
1#
b011 $
0%
1&
#4000000
b100 !
1"
0#
b100 $
1%
0&
#5000000
b101 !
0"
1#
b101 $
0%
1&
#6000000
b110 !
b110 $
#7000000
b111 !
1"
0#
b111 $
1%
0&
